{
    "names":[
        "Jan", "Adam", "Dominika", "Ewa", "Patrycja", "Jerzy", "Zbigniew", "Karolina", "Amanda", "Monika", "Piotr", "Mateusz", "Natalia"
    ],
    "surnames":[
        "Nowak", "Kowalski", "Kozak", "Górski", "Kwiatowa", "Mądra", "Dębowy", "Kowalska", "Pazura"
    ],
    "positions":[
        "księgowy", "informatyk", "sprzątacz", "pracownik biurowy", "pielęgniarka"
    ],
    "specializations":[
        "chirurg", "ginekolog", "dentysta", "psycholog", "weterynarz"
    ],
    "visitTypes":[
        "prywatna", "NFZ"
    ],
    "diagnosis":[
        "przeziębienie", "rak", "grypa", "próba wymuszenia L4", "katar", "zapalenie płuc", "zatrucie pokarmowe"
    ],
    "pesels": [
        "12345678911", "10101010101", "99999999999", "960122334455"
    ]
}